120; Git+Researching
120; Webpack+starting the project
120; reading docs+building maps
30; getting to know the apis
40; fixing babel+axios
140; made the map fetch stations from the api
180; learning graphql and tweaking marker keys
140; fixing linter issues and changing state from app to map
60; refreshing the markers
150; changed the markers to include information
60; reading heroku docs for node+react deployment
60; designing and planning
95; deploying to heroku
200; working with user location
30; issues + planning
120; centering the map and playing with states
120; reading the api docs
480; made the app fetch 3 nearest stations near the user
480; fixed the fetching+tested the app manually
60; started the backend research
960; making the server to log data to a db and messing with webpack mostly
60; working with exporting the db
30; fixing timezone issues
170; exploring the sleeping issue and fixing it
120; looking into exporting data from the db and visualizing it
60; same
60; reading the api docs
120; issues with npm/linux updates
60; looked into displaying data in the app
90; testing displaying data in a popup
210; testing and fetching data from the db
90; exploring the api and React leaflet docs
15; exporting data from my db and viewing it
210; adding a layer on top of the map (zIndex dumbass)
200; working with the data display and DB
120; webpack problems
150; working with the data display
130; working with the data and reading docs
120; apexcharts docs suck and is shit
60; docs
70; apexcharts
120; e.preventDefault()
240; fixing mobile and charts
30; testing mobile
60; trying to move the arrow to point directly at the marker (css)
120; cleanup
180; testing
60; reading about testing
60; issues with webpack again
60; error handling
50; error handling css
75; error handling UI
30; testing
60; optimizing
60; testing
60; reading about react router
120; working with navigation
30; docs on that
120; reading api docs and navigate
30; docs
180; testing async
150; finishing the navigating
30; testing
480; removed apex charts and did the charts with css (isStupid)
30; testing
120; trying to fix the css
30; exporting the db and viewing the data
30; reading the api docs
120; reading mqtt
120; exploring apis and node libraries for mqtt
120; reading the mqtt api
120; setting up the mqtt client-publisher and testing
60; modifying the mqtt subscribe
120; look into multipage serving with react because of the mqtt
90; mqtt and button for the app
90; trying to get the mqtt js working
30; same
60; ditched the browser mqtt and moved it to node and http
30; building the api
45; tracking works for 1 bus now
90; working with tracking
210; tracking and api work
60; tracking multiple busses and api
60; axios is ass
60; working with the form for tracking
150; fixing the tracking and timer issues
30; reading the api docs and testing the api with some placeholder values
60; css work
90; clicking an item on the list adds it to tracked vehicles
10; fixing css
100; add features (tracking shows if the bus is on schedule)
30; cleaning up and deploying
20; fixing and cleaning
80; fixing readme and removing console statements and testing
176.33